<?xml version="1.0" encoding="UTF-8" standalone="no"?>
<!-- Created with Inkscape (http://www.inkscape.org/) -->

<svg
   xmlns:dc="http://purl.org/dc/elements/1.1/"
   xmlns:cc="http://creativecommons.org/ns#"
   xmlns:rdf="http://www.w3.org/1999/02/22-rdf-syntax-ns#"
   xmlns:svg="http://www.w3.org/2000/svg"
   xmlns="http://www.w3.org/2000/svg"
   xmlns:sodipodi="http://sodipodi.sourceforge.net/DTD/sodipodi-0.dtd"
   xmlns:inkscape="http://www.inkscape.org/namespaces/inkscape"
   width="510mm"
   height="100mm"
   viewBox="0 0 510 100"
   version="1.1"
   id="svg8"
   inkscape:version="0.92.4 (5da689c313, 2019-01-14)"
   sodipodi:docname="Zeichnung_pfad.svg">
  <defs
     id="defs2">
    <inkscape:perspective
       sodipodi:type="inkscape:persp3d"
       inkscape:vp_x="64.444939 : 720.98771 : 1"
       inkscape:vp_y="0 : 3779.5274 : 0"
       inkscape:vp_z="858.14573 : 562.39374 : 1"
       inkscape:persp3d-origin="461.29533 : 375.30715 : 1"
       id="perspective4145" />
    <inkscape:perspective
       sodipodi:type="inkscape:persp3d"
       inkscape:vp_x="0 : 190.46131 : 1"
       inkscape:vp_y="0 : 999.99996 : 0"
       inkscape:vp_z="210 : 148.49999 : 1"
       inkscape:persp3d-origin="105 : 98.999996 : 1"
       id="perspective3717" />
  </defs>
  <sodipodi:namedview
     id="base"
     pagecolor="#ffffff"
     bordercolor="#666666"
     borderopacity="1.0"
     inkscape:pageopacity="0.0"
     inkscape:pageshadow="2"
     inkscape:zoom="0.49497475"
     inkscape:cx="705.45856"
     inkscape:cy="-164.35269"
     inkscape:document-units="mm"
     inkscape:current-layer="layer1"
     showgrid="false"
     inkscape:window-width="1920"
     inkscape:window-height="1001"
     inkscape:window-x="-9"
     inkscape:window-y="-9"
     inkscape:window-maximized="1"
     objecttolerance="4"
     guidetolerance="1"
     showguides="false"
     gridtolerance="4" />
  <metadata
     id="metadata5">
    <rdf:RDF>
      <cc:Work
         rdf:about="">
        <dc:format>image/svg+xml</dc:format>
        <dc:type
           rdf:resource="http://purl.org/dc/dcmitype/StillImage" />
        <dc:title></dc:title>
      </cc:Work>
    </rdf:RDF>
  </metadata>
  <g
     inkscape:label="Ebene 1"
     inkscape:groupmode="layer"
     id="layer1"
     transform="translate(0,-197)">
    <g
       sodipodi:type="inkscape:box3d"
       id="g3733"
       inkscape:perspectiveID="#perspective4145"
       inkscape:corner0="0.029807379 : 0.087568899 : 0 : 1"
       inkscape:corner7="0.029807379 : 0.087568898 : 0.25 : 1">
      <path
         sodipodi:type="inkscape:box3dside"
         id="path3735"
         style="fill:#353564;fill-rule:evenodd;stroke:none;stroke-linejoin:round"
         inkscape:box3dsidetype="6"
         d="m 449.80866,-309.70203 v 10e-6 l 79.76534,28.18945 v 0 z"
         points="449.80866,-309.70202 529.574,-281.51257 529.574,-281.51257 449.80866,-309.70203 " />
      <path
         sodipodi:type="inkscape:box3dside"
         id="path3745"
         style="fill:#e9e9ff;fill-rule:evenodd;stroke:none;stroke-linejoin:round"
         inkscape:box3dsidetype="11"
         d="m 529.574,-281.51257 v 0 0 0 z"
         points="529.574,-281.51257 529.574,-281.51257 529.574,-281.51257 529.574,-281.51257 " />
      <path
         sodipodi:type="inkscape:box3dside"
         id="path3737"
         style="fill:#4d4d9f;fill-rule:evenodd;stroke:none;stroke-linejoin:round"
         inkscape:box3dsidetype="5"
         d="m 449.80866,-309.70203 v 0 l 79.76534,28.18946 v 0 z"
         points="449.80866,-309.70203 529.574,-281.51257 529.574,-281.51257 449.80866,-309.70203 " />
      <path
         sodipodi:type="inkscape:box3dside"
         id="path3743"
         style="fill:#afafde;fill-rule:evenodd;stroke:none;stroke-linejoin:round"
         inkscape:box3dsidetype="13"
         d="m 449.80866,-309.70202 v 0 l 79.76534,28.18945 v 0 z"
         points="449.80866,-309.70202 529.574,-281.51257 529.574,-281.51257 449.80866,-309.70202 " />
      <path
         sodipodi:type="inkscape:box3dside"
         id="path3741"
         style="fill:#d7d7ff;fill-rule:evenodd;stroke:none;stroke-linejoin:round"
         inkscape:box3dsidetype="14"
         d="m 449.80866,-309.70203 v 10e-6 l 79.76534,28.18945 v 0 z"
         points="449.80866,-309.70202 529.574,-281.51257 529.574,-281.51257 449.80866,-309.70203 " />
      <path
         sodipodi:type="inkscape:box3dside"
         id="path3739"
         style="fill:#8686bf;fill-rule:evenodd;stroke:none;stroke-linejoin:round"
         inkscape:box3dsidetype="3"
         d="m 449.80866,-309.70203 v 0 10e-6 0 z"
         points="449.80866,-309.70203 449.80866,-309.70202 449.80866,-309.70202 449.80866,-309.70203 " />
    </g>
    <g
       sodipodi:type="inkscape:box3d"
       id="g3807"
       inkscape:perspectiveID="#perspective3717"
       inkscape:corner0="1.1705075 : -0.035361801 : 0 : 1"
       inkscape:corner7="1.1705075 : -0.035361801 : 0.25 : 1">
      <path
         sodipodi:type="inkscape:box3dside"
         id="path3809"
         style="fill:#353564;fill-rule:evenodd;stroke:none;stroke-linejoin:round"
         inkscape:box3dsidetype="6"
         d="m 48.375783,264.96886 v 0 l 16.693216,-1.70097 v 0 z"
         points="48.375783,264.96886 65.068999,263.26789 65.068999,263.26789 48.375783,264.96886 " />
      <path
         sodipodi:type="inkscape:box3dside"
         id="path3817"
         style="fill:#afafde;fill-rule:evenodd;stroke:none;stroke-linejoin:round"
         inkscape:box3dsidetype="13"
         d="m 48.375783,264.96886 1e-6,0 16.693216,-1.70097 -10e-7,0 z"
         points="48.375784,264.96886 65.069,263.26789 65.068999,263.26789 48.375783,264.96886 " />
      <path
         sodipodi:type="inkscape:box3dside"
         id="path3819"
         style="fill:#e9e9ff;fill-rule:evenodd;stroke:none;stroke-linejoin:round"
         inkscape:box3dsidetype="11"
         d="m 65.068999,263.26789 10e-7,0 v 0 l -10e-7,0 z"
         points="65.069,263.26789 65.069,263.26789 65.068999,263.26789 65.068999,263.26789 " />
      <path
         sodipodi:type="inkscape:box3dside"
         id="path3811"
         style="fill:#4d4d9f;fill-rule:evenodd;stroke:none;stroke-linejoin:round"
         inkscape:box3dsidetype="5"
         d="m 48.375783,264.96886 1e-6,0 16.693216,-1.70097 -10e-7,0 z"
         points="48.375784,264.96886 65.069,263.26789 65.068999,263.26789 48.375783,264.96886 " />
      <path
         sodipodi:type="inkscape:box3dside"
         id="path3815"
         style="fill:#d7d7ff;fill-rule:evenodd;stroke:none;stroke-linejoin:round"
         inkscape:box3dsidetype="14"
         d="m 48.375784,264.96886 v 0 L 65.069,263.26789 v 0 z"
         points="48.375784,264.96886 65.069,263.26789 65.069,263.26789 48.375784,264.96886 " />
      <path
         sodipodi:type="inkscape:box3dside"
         id="path3813"
         style="fill:#8686bf;fill-rule:evenodd;stroke:none;stroke-linejoin:round"
         inkscape:box3dsidetype="3"
         d="m 48.375783,264.96886 1e-6,0 v 0 l -1e-6,0 z"
         points="48.375784,264.96886 48.375784,264.96886 48.375783,264.96886 48.375783,264.96886 " />
    </g>
    <flowRoot
       xml:space="preserve"
       id="flowRoot3854"
       style="font-style:normal;font-weight:normal;font-size:40px;line-height:1.25;font-family:sans-serif;letter-spacing:0px;word-spacing:0px;fill:#000000;fill-opacity:1;stroke:none"
       transform="scale(0.26458333)"><flowRegion
         id="flowRegion3856"><rect
           id="rect3858"
           width="168.70049"
           height="133.33565"
           x="296.42856"
           y="311.80539" /></flowRegion><flowPara
         id="flowPara3860"></flowPara></flowRoot>    <text
       xml:space="preserve"
       style="font-style:normal;font-weight:normal;font-size:10.58333302px;line-height:1.25;font-family:sans-serif;letter-spacing:0px;word-spacing:0px;fill:#000000;fill-opacity:1;stroke:none;stroke-width:0.26458332"
       x="85.233627"
       y="111.98065"
       id="text3868"><tspan
         sodipodi:role="line"
         id="tspan3866"
         x="85.233627"
         y="121.63615"
         style="stroke-width:0.26458332" /></text>
    <rect
       style="fill:#000000;stroke-width:0.51430279"
       id="rect3939"
       width="70"
       height="85"
       x="129.3786"
       y="209.35788"
       ry="11.721613" />
    <rect
       style="fill:#ffffff;stroke-width:0.48304588"
       id="rect3939-9"
       width="65"
       height="80"
       x="131.8786"
       y="211.85788"
       ry="8.4896955" />
    <rect
       style="fill:#000000;stroke-width:0.26458332"
       id="rect3980"
       width="14"
       height="14"
       x="136.38315"
       y="220.67474"
       ry="2" />
    <rect
       style="fill:#ffffff;stroke-width:0.2267857"
       id="rect3980-3"
       width="12"
       height="12"
       x="137.38315"
       y="221.67474"
       ry="1.7142857" />
    <rect
       style="fill:#000000;stroke-width:0.26458332"
       id="rect4051"
       width="35"
       height="3"
       x="154.3653"
       y="223.38161"
       ry="1.5" />
    <rect
       style="fill:#000000;stroke-width:0.26458332"
       id="rect4051-5"
       width="25.779202"
       height="3"
       x="154.55428"
       y="228.19318"
       ry="1.5" />
    <rect
       style="fill:#3e69dc;fill-opacity:1;stroke-width:0.26458332"
       id="rect4109"
       width="33.09354"
       height="14.040468"
       x="147.86929"
       y="200.91493"
       ry="1.4999996" />
    <flowRoot
       xml:space="preserve"
       id="flowRoot4147"
       style="font-style:normal;font-weight:normal;font-size:40px;line-height:1.25;font-family:sans-serif;letter-spacing:0px;word-spacing:0px;fill:#000000;fill-opacity:1;stroke:none"
       transform="matrix(0.26458333,0,0,0.26458333,0,97)"><flowRegion
         id="flowRegion4149"><rect
           id="rect4151"
           width="202.14285"
           height="177.14285"
           x="243.57143"
           y="163.04837" /></flowRegion><flowPara
         id="flowPara4153"></flowPara></flowRoot>    <g
       aria-label="n"
       transform="matrix(2.4118381,0,0,3.0393691,14.94167,-65.511345)"
       style="font-style:normal;font-variant:normal;font-weight:bold;font-stretch:normal;font-size:40px;line-height:1.25;font-family:sans-serif;-inkscape-font-specification:'sans-serif, Bold';font-variant-ligatures:normal;font-variant-caps:normal;font-variant-numeric:normal;font-feature-settings:normal;text-align:start;letter-spacing:0px;word-spacing:0px;writing-mode:lr-tb;text-anchor:start;fill:#3e69dc;fill-opacity:1;stroke:none"
       id="flowRoot4137-0">
      <path
         d="m 44.636719,115.96978 h -7.070313 v -10.87891 q 0,-1.32813 -0.136719,-2.63672 -0.136718,-1.32812 -0.46875,-1.95312 -0.390625,-0.722661 -1.152343,-1.054692 -0.742188,-0.332032 -2.089844,-0.332032 -0.957031,0 -1.953125,0.3125 -0.976563,0.3125 -2.128906,0.996094 v 15.54688 h -7.03125 V 94.036181 h 7.03125 v 2.421875 q 1.875,-1.464843 3.59375,-2.246093 1.738281,-0.78125 3.847656,-0.78125 3.554687,0 5.546875,2.070312 2.011719,2.070313 2.011719,6.191405 z"
         style="font-style:normal;font-variant:normal;font-weight:bold;font-stretch:normal;font-size:40px;font-family:sans-serif;-inkscape-font-specification:'sans-serif, Bold';font-variant-ligatures:normal;font-variant-caps:normal;font-variant-numeric:normal;font-feature-settings:normal;text-align:start;writing-mode:lr-tb;text-anchor:start;fill:#3e69dc;fill-opacity:1"
         id="path4258"
         inkscape:connector-curvature="0" />
    </g>
    <g
       aria-label="u"
       transform="matrix(2.7029913,0,0,3.0275111,-55.766651,-64.392455)"
       style="font-style:normal;font-variant:normal;font-weight:bold;font-stretch:normal;font-size:40px;line-height:1.25;font-family:sans-serif;-inkscape-font-specification:'sans-serif, Bold';font-variant-ligatures:normal;font-variant-caps:normal;font-variant-numeric:normal;font-feature-settings:normal;text-align:start;letter-spacing:0px;word-spacing:0px;writing-mode:lr-tb;text-anchor:start;fill:#3e69dc;fill-opacity:1;stroke:none"
       id="flowRoot4137-0-7">
      <path
         d="m 44.460937,115.96978 h -7.03125 v -2.42188 q -1.953125,1.48438 -3.574218,2.26563 -1.621094,0.76171 -3.867188,0.76171 -3.632812,0 -5.605469,-2.08984 -1.953125,-2.08984 -1.953125,-6.17187 V 94.036181 H 29.5 v 10.878909 q 0,1.66015 0.09766,2.77344 0.117188,1.09375 0.507813,1.8164 0.371093,0.72266 1.113281,1.05469 0.761719,0.33203 2.109375,0.33203 0.898437,0 1.992187,-0.33203 1.09375,-0.33203 2.109375,-0.97656 V 94.036181 h 7.03125 z"
         style="font-style:normal;font-variant:normal;font-weight:bold;font-stretch:normal;font-size:40px;font-family:sans-serif;-inkscape-font-specification:'sans-serif, Bold';font-variant-ligatures:normal;font-variant-caps:normal;font-variant-numeric:normal;font-feature-settings:normal;text-align:start;writing-mode:lr-tb;text-anchor:start;fill:#3e69dc;fill-opacity:1"
         id="path4261"
         inkscape:connector-curvature="0" />
    </g>
    <rect
       style="fill:#000000;stroke-width:0.26458332"
       id="rect3980-4"
       width="14"
       height="14"
       x="136.44884"
       y="238.81789"
       ry="2" />
    <rect
       style="fill:#ffffff;stroke-width:0.2267857"
       id="rect3980-3-8"
       width="12"
       height="12"
       x="137.44884"
       y="239.81789"
       ry="1.7142857" />
    <rect
       style="fill:#000000;stroke-width:0.26458332"
       id="rect4051-51"
       width="31.65913"
       height="3"
       x="154.43098"
       y="241.52475"
       ry="1.4331826" />
    <rect
       style="fill:#000000;stroke-width:0.26458332"
       id="rect4051-5-4"
       width="15.756592"
       height="3"
       x="154.61996"
       y="246.33632"
       ry="1.3663635" />
    <rect
       style="fill:#000000;stroke-width:0.26458332"
       id="rect3980-5"
       width="14"
       height="14"
       x="136.31522"
       y="256.72495"
       ry="2" />
    <rect
       style="fill:#ffffff;stroke-width:0.2267857"
       id="rect3980-3-5"
       width="12"
       height="12"
       x="137.31522"
       y="257.72495"
       ry="1.7142857" />
    <rect
       style="fill:#000000;stroke-width:0.26458332"
       id="rect4051-3"
       width="24.977392"
       height="3"
       x="154.29736"
       y="259.43179"
       ry="1.4331826" />
    <rect
       style="fill:#000000;stroke-width:0.26458332"
       id="rect4051-5-9"
       width="27.516453"
       height="3"
       x="154.48634"
       y="264.24338"
       ry="1.5" />
    <g
       aria-label="tasks"
       transform="matrix(0.26458333,0,0,0.26458333,-6.3987333,164.03879)"
       style="font-style:normal;font-variant:normal;font-weight:bold;font-stretch:normal;font-size:400px;line-height:1.25;font-family:sans-serif;-inkscape-font-specification:'sans-serif Bold';letter-spacing:-17px;word-spacing:0px;fill:#3e69dc;fill-opacity:1;stroke:none"
       id="flowRoot4264">
      <path
         d="m 964.38672,469.35595 q -11.32813,2.92969 -24.02344,4.49219 -12.69531,1.75781 -31.05469,1.75781 -41.01562,0 -61.13281,-16.60156 -19.92187,-16.60156 -19.92187,-56.83594 V 299.62939 h -28.90625 v -47.65625 h 28.90625 v -62.69531 h 70.3125 v 62.69531 h 65.82031 v 47.65625 h -65.82031 v 77.73438 q 0,11.52343 0.19531,20.11718 0.19531,8.59375 3.125,15.42969 2.73437,6.83594 9.57031,10.9375 7.03125,3.90625 20.3125,3.90625 5.46875,0 14.25781,-2.34375 8.98438,-2.34375 12.5,-4.29687 h 5.85938 z"
         id="path4272"
         inkscape:connector-curvature="0"
         style="fill:#3e69dc;fill-opacity:1" />
      <path
         d="m 1121.9961,414.08252 v -45.70313 q -14.2578,1.17188 -30.8594,3.32031 -16.6015,1.95313 -25.1953,4.6875 -10.5469,3.32032 -16.2109,9.76563 -5.4688,6.25 -5.4688,16.60156 0,6.83594 1.1719,11.13281 1.1719,4.29688 5.8594,8.20313 4.4922,3.90625 10.7422,5.85937 6.25,1.75782 19.5312,1.75782 10.5469,0 21.2891,-4.29688 10.9375,-4.29687 19.1406,-11.32812 z m 0,33.98437 q -5.6641,4.29688 -14.0625,10.35156 -8.3984,6.05469 -15.8203,9.57032 -10.3516,4.6875 -21.4844,6.83593 -11.1328,2.34375 -24.4141,2.34375 -31.25,0 -52.34371,-19.33593 -21.09375,-19.33594 -21.09375,-49.41407 0,-24.02343 10.74219,-39.25781 10.74219,-15.23437 30.46877,-24.02344 19.5312,-8.78906 48.4375,-12.5 28.9062,-3.71093 59.9609,-5.46875 v -1.17187 q 0,-18.16406 -14.8437,-25 -14.8438,-7.03125 -43.75,-7.03125 -17.3828,0 -37.1094,6.25 -19.7266,6.05469 -28.32032,9.375 h -6.44531 v -52.92969 q 11.13283,-2.92969 36.13283,-6.83594 25.1953,-4.10156 50.3906,-4.10156 59.9609,0 86.5234,18.55469 26.7579,18.35937 26.7579,57.8125 v 149.21875 h -69.7266 z"
         id="path4274"
         inkscape:connector-curvature="0"
         style="fill:#3e69dc;fill-opacity:1" />
      <path
         d="m 1429.9961,401.77783 q 0,33.98437 -30.4688,54.88281 -30.4687,20.70313 -83.3984,20.70313 -29.2969,0 -53.125,-5.46875 -23.8281,-5.46875 -38.2812,-12.10938 v -57.8125 h 6.4453 q 5.2734,3.71094 12.1093,8.20313 7.0313,4.29687 19.7266,9.375 10.9375,4.49218 24.8047,7.8125 13.8672,3.125 29.6875,3.125 20.7031,0 30.6641,-4.49219 9.9609,-4.6875 9.9609,-13.67188 0,-8.00781 -5.8594,-11.52343 -5.8594,-3.71094 -22.2656,-7.03125 -7.8125,-1.75782 -21.2891,-3.71094 -13.2812,-2.14844 -24.2187,-5.07813 -29.8828,-7.8125 -44.336,-24.21875 -14.4531,-16.60156 -14.4531,-41.21093 0,-31.64063 29.8828,-52.53907 30.0782,-21.09375 82.0313,-21.09375 24.6094,0 47.0703,5.07813 22.6562,4.88281 35.3516,10.54687 v 55.46875 h -6.0547 q -15.625,-10.74218 -35.7422,-17.38281 -19.9219,-6.83594 -40.4297,-6.83594 -16.9922,0 -28.7109,4.6875 -11.5235,4.6875 -11.5235,13.28125 0,7.8125 5.2735,11.91407 5.2734,4.10156 24.8046,8.20312 10.7422,2.14844 23.0469,4.29688 12.5,1.95312 25,5.07812 27.7344,7.22656 41.0156,22.85156 13.2813,15.42969 13.2813,38.67188 z"
         id="path4276"
         inkscape:connector-curvature="0"
         style="fill:#3e69dc;fill-opacity:1" />
      <path
         d="m 1692.6836,471.30908 h -81.8359 l -61.5235,-95.50781 -19.1406,23.24218 v 72.26563 h -70.3125 V 167.40283 h 70.3125 v 181.44531 l 75.7812,-96.875 h 81.0547 l -78.9062,94.53125 z"
         id="path4278"
         inkscape:connector-curvature="0"
         style="fill:#3e69dc;fill-opacity:1" />
      <path
         d="m 1902.2461,401.77783 q 0,33.98437 -30.4688,54.88281 -30.4687,20.70313 -83.3984,20.70313 -29.2969,0 -53.125,-5.46875 -23.8281,-5.46875 -38.2812,-12.10938 v -57.8125 h 6.4453 q 5.2734,3.71094 12.1093,8.20313 7.0313,4.29687 19.7266,9.375 10.9375,4.49218 24.8047,7.8125 13.8672,3.125 29.6875,3.125 20.7031,0 30.6641,-4.49219 9.9609,-4.6875 9.9609,-13.67188 0,-8.00781 -5.8594,-11.52343 -5.8594,-3.71094 -22.2656,-7.03125 -7.8125,-1.75782 -21.2891,-3.71094 -13.2812,-2.14844 -24.2187,-5.07813 -29.8828,-7.8125 -44.336,-24.21875 -14.4531,-16.60156 -14.4531,-41.21093 0,-31.64063 29.8828,-52.53907 30.0782,-21.09375 82.0313,-21.09375 24.6094,0 47.0703,5.07813 22.6562,4.88281 35.3516,10.54687 v 55.46875 h -6.0547 q -15.625,-10.74218 -35.7422,-17.38281 -19.9219,-6.83594 -40.4297,-6.83594 -16.9922,0 -28.7109,4.6875 -11.5235,4.6875 -11.5235,13.28125 0,7.8125 5.2735,11.91407 5.2734,4.10156 24.8046,8.20312 10.7422,2.14844 23.0469,4.29688 12.5,1.95312 25,5.07812 27.7344,7.22656 41.0156,22.85156 13.2813,15.42969 13.2813,38.67188 z"
         id="path4280"
         inkscape:connector-curvature="0"
         style="fill:#3e69dc;fill-opacity:1" />
    </g>
    <rect
       style="fill:#3e69dc;fill-opacity:1;stroke-width:0.26458332"
       id="rect5088"
       width="9.6885204"
       height="4.2763124"
       x="254.60345"
       y="65.653336"
       ry="1.4999996"
       transform="rotate(43.904326)" />
    <rect
       style="fill:#3e69dc;fill-opacity:1;stroke-width:0.26458332"
       id="rect5088-2"
       width="17.645906"
       height="4.624763"
       x="-54.150993"
       y="263.42215"
       ry="1.4999996"
       transform="rotate(-42.743759)" />
  </g>
</svg>
